…
More details on authentication can be found
[here](https://platform.openai.com/docs/api-reference/authentication).

## Examples

Retrieve the currently available models used to generate text.

``` r
library(openai)
library(purrr)

list_models() %>% 
  pluck('data') %>% 
  map_dfr(compact)
#> # A tibble: 70 × 7
#>    id                          object created owned_by permission   root  parent
#>    <chr>                       <chr>    <int> <chr>    <list>       <chr> <chr> 
#>  1 babbage                     model   1.65e9 openai   <named list> babb… <NA>  
#>  2 davinci                     model   1.65e9 openai   <named list> davi… <NA>  
#>  3 babbage-code-search-code    model   1.65e9 openai-… <named list> babb… <NA>  
#>  4 text-similarity-babbage-001 model   1.65e9 openai-… <named list> text… <NA>  
#>  5 text-davinci-001            model   1.65e9 openai   <named list> text… <NA>  
#>  6 ada                         model   1.65e9 openai   <named list> ada   <NA>  
#>  7 curie-instruct-beta         model   1.65e9 openai   <named list> curi… <NA>  
#>  8 babbage-code-search-text    model   1.65e9 openai-… <named list> babb… <NA>  
#>  9 babbage-similarity          model   1.65e9 openai-… <named list> babb… <NA>  
#> 10 gpt-3.5-turbo               model   1.68e9 openai   <named list> gpt-… <NA>  
#> # … with 60 more rows
```
…
